^D:\VISUALSTUDIOPROJECTS\HOMEWORK_14_3\HOMEWORK_14_3.CPP
D:\VISUALSTUDIOPROJECTS\HOMEWORK_14_3\DEBUG\VC142.PDB
D:\VISUALSTUDIOPROJECTS\HOMEWORK_14_3\DEBUG\VC142.IDB
D:\VISUALSTUDIOPROJECTS\HOMEWORK_14_3\DEBUG\HOMEWORK_14_3.OBJ
